<svg xmlns="http://www.w3.org/2000/svg" width="17.395" height="17.395" viewBox="0 0 17.395 17.395">
  <g id="calendar" transform="translate(0 0)" opacity="0.9">
    <path id="Path_76" data-name="Path 76" d="M16.308,3.615H9.432V2.691a1.419,1.419,0,0,0,.734-1.223A1.5,1.5,0,0,0,8.7,0,1.45,1.45,0,0,0,7.257,1.441a1.386,1.386,0,0,0,.734,1.223v.951h-6.9A1.073,1.073,0,0,0,0,4.7V16.308A1.128,1.128,0,0,0,1.087,17.4H16.308A1.128,1.128,0,0,0,17.4,16.308V4.729A1.133,1.133,0,0,0,16.308,3.615Zm-.353,12.34H1.441V8.7H15.928v7.257ZM1.441,7.257V5.083H15.928V7.257Z" transform="translate(0 0)" fill="#fff"/>
    <path id="Path_77" data-name="Path 77" d="M13.745,38.841h.734a.328.328,0,0,0,.353-.353v-.734a.328.328,0,0,0-.353-.353h-.734a.328.328,0,0,0-.353.353v.734A.328.328,0,0,0,13.745,38.841Z" transform="translate(-9.75 -27.235)" fill="#fff"/>
    <path id="Path_78" data-name="Path 78" d="M24.353,38.841h.734a.328.328,0,0,0,.353-.353v-.734a.328.328,0,0,0-.353-.353h-.734a.328.328,0,0,0-.353.353v.734A.343.343,0,0,0,24.353,38.841Z" transform="translate(-17.477 -27.235)" fill="#fff"/>
    <path id="Path_79" data-name="Path 79" d="M35.053,38.841h.734a.328.328,0,0,0,.353-.353v-.734a.328.328,0,0,0-.353-.353h-.734a.328.328,0,0,0-.353.353v.734A.343.343,0,0,0,35.053,38.841Z" transform="translate(-25.268 -27.235)" fill="#fff"/>
    <path id="Path_80" data-name="Path 80" d="M45.745,38.841h.734a.328.328,0,0,0,.353-.353v-.734a.328.328,0,0,0-.353-.353h-.734a.328.328,0,0,0-.353.353v.734A.328.328,0,0,0,45.745,38.841Z" transform="translate(-33.052 -27.235)" fill="#fff"/>
    <path id="Path_81" data-name="Path 81" d="M13.745,49.441h.734a.328.328,0,0,0,.353-.353v-.734A.328.328,0,0,0,14.479,48h-.734a.328.328,0,0,0-.353.353v.734C13.365,49.3,13.528,49.441,13.745,49.441Z" transform="translate(-9.75 -34.954)" fill="#fff"/>
    <path id="Path_82" data-name="Path 82" d="M24.353,49.441h.734a.328.328,0,0,0,.353-.353v-.734A.328.328,0,0,0,25.087,48h-.734a.328.328,0,0,0-.353.353v.734A.328.328,0,0,0,24.353,49.441Z" transform="translate(-17.477 -34.954)" fill="#fff"/>
    <path id="Path_83" data-name="Path 83" d="M35.053,49.441h.734a.328.328,0,0,0,.353-.353v-.734A.328.328,0,0,0,35.787,48h-.734a.328.328,0,0,0-.353.353v.734A.328.328,0,0,0,35.053,49.441Z" transform="translate(-25.268 -34.954)" fill="#fff"/>
    <path id="Path_84" data-name="Path 84" d="M45.745,49.441h.734a.328.328,0,0,0,.353-.353v-.734A.328.328,0,0,0,46.479,48h-.734a.328.328,0,0,0-.353.353v.734C45.365,49.3,45.528,49.441,45.745,49.441Z" transform="translate(-33.052 -34.954)" fill="#fff"/>
  </g>
</svg>
