<svg xmlns="http://www.w3.org/2000/svg" width="17.469" height="16.023" viewBox="0 0 17.469 16.023">
  <g id="first-aid_1_" data-name="first-aid (1)" transform="translate(0 0)" opacity="0.9">
    <path id="Path_39" data-name="Path 39" d="M24.737,24.221h.737v.737a.737.737,0,1,0,1.474,0v-.737h.737a.737.737,0,0,0,0-1.474h-.737v-.71a.737.737,0,0,0-1.474,0v.737h-.737a.723.723,0,1,0,0,1.447Z" transform="translate(-17.449 -16.196)" fill="#fff"/>
    <path id="Path_40" data-name="Path 40" d="M15.64,5.521H11.655V4.784A2.156,2.156,0,0,0,9.472,2.6H8.025A2.156,2.156,0,0,0,5.841,4.784v.737H1.829A1.812,1.812,0,0,0,0,7.349v3.494A1.891,1.891,0,0,0,.737,12.29v4.668A1.69,1.69,0,0,0,2.4,18.623H15.067a1.69,1.69,0,0,0,1.665-1.747v-4.64a1.891,1.891,0,0,0,.737-1.447V7.268A1.8,1.8,0,0,0,15.64,5.521Zm-8.352-.71a.7.7,0,0,1,.737-.737H9.472a.7.7,0,0,1,.737.737v.737H7.288ZM1.447,7.349A.33.33,0,0,1,1.8,6.995H15.64A.33.33,0,0,1,16,7.349v3.494c0,.136-.136.3-.218.3-.3.082-.519.082-.737.136l-4.231,1.174a8.541,8.541,0,0,1-4.231,0L2.4,11.28a4.363,4.363,0,0,0-.573-.136H1.747a.323.323,0,0,1-.3-.3Zm13.621,9.826H2.4c-.136,0-.218-.136-.218-.3v-4.2L6.2,13.764a9.663,9.663,0,0,0,2.538.355,10.166,10.166,0,0,0,2.539-.355L15.34,12.59v4.231C15.286,17.039,15.2,17.176,15.067,17.176Z" transform="translate(0 -2.6)" fill="#fff"/>
  </g>
</svg>
