<svg xmlns="http://www.w3.org/2000/svg" width="14.899" height="19.097" viewBox="0 0 14.899 19.097">
  <g id="Group_2364" data-name="Group 2364" transform="translate(-345.499 -728.437)">
    <g id="Group_2362" data-name="Group 2362" transform="translate(345.911 728.787)">
      <g id="Group_1793" data-name="Group 1793" transform="translate(5.487 10.99)">
        <path id="Path_5155" data-name="Path 5155" d="M601.7,487.8l-1.044,1.029L599.6,487.8" transform="translate(-599.093 -487.8)" fill="none" stroke="#fff" stroke-linecap="round" stroke-linejoin="round" stroke-miterlimit="10" stroke-width="0.7"/>
        <path id="Path_5156" data-name="Path 5156" d="M597.244,491.2l-1.044,5.189,1.566,1.566" transform="translate(-596.2 -490.693)" fill="none" stroke="#fff" stroke-linecap="round" stroke-linejoin="round" stroke-miterlimit="10" stroke-width="0.7"/>
        <path id="Path_5157" data-name="Path 5157" d="M607.222,491.2l1.029,5.189-1.551,1.566" transform="translate(-605.134 -490.693)" fill="none" stroke="#fff" stroke-linecap="round" stroke-linejoin="round" stroke-miterlimit="10" stroke-width="0.7"/>
      </g>
      <g id="Group_1794" data-name="Group 1794" transform="translate(0 3.892)">
        <path id="Path_5158" data-name="Path 5158" d="M619.959,452.189l4.145-.865-.552-2.744a2.654,2.654,0,0,0-.924-1.551,2.073,2.073,0,0,0-.91-.477l-2.341-.686c-.045-.015-.1-.045-.149-.06a.517.517,0,0,1-.224-.358l-.1-.924a3.92,3.92,0,0,0,1.372-2.162c.418-.03.746-.507.746-1.088a1.042,1.042,0,0,0-.641-1.074" transform="translate(-610.028 -440.2)" fill="none" stroke="#fff" stroke-linecap="round" stroke-miterlimit="10" stroke-width="0.7"/>
        <path id="Path_5159" data-name="Path 5159" d="M563.128,440.2a1.065,1.065,0,0,0-.626,1.074,1,1,0,0,0,.731,1.089,4,4,0,0,0,1.372,2.162l-.1.924a.488.488,0,0,1-.224.358.447.447,0,0,1-.149.06l-2.341.671a2.072,2.072,0,0,0-.91.477,2.7,2.7,0,0,0-.924,1.551l-.552,2.744,3.713.775" transform="translate(-559.4 -440.2)" fill="none" stroke="#fff" stroke-linecap="round" stroke-miterlimit="10" stroke-width="0.7"/>
      </g>
      <path id="Path_5160" data-name="Path 5160" d="M591.1,417.977s.194-3.877-3.3-3.877-3.31,3.892-3.31,3.892" transform="translate(-580.748 -414.1)" fill="none" stroke="#fff" stroke-linecap="round" stroke-miterlimit="10" stroke-width="0.7"/>
      <path id="Path_5161" data-name="Path 5161" d="M586.1,425.141a1.226,1.226,0,0,1,.686-.6,1.941,1.941,0,0,1,1.461.179,6.636,6.636,0,0,0,1.983.746,3.367,3.367,0,0,0,1.983-.328" transform="translate(-582.119 -422.919)" fill="none" stroke="#fff" stroke-linecap="round" stroke-miterlimit="10" stroke-width="0.7"/>
      <g id="Group_1795" data-name="Group 1795" transform="translate(4.578 3.743)">
        <path id="Path_5162" data-name="Path 5162" d="M591.755,440.393h-1.461a.2.2,0,0,1-.194-.194v-.805a.2.2,0,0,1,.194-.194h1.461a.2.2,0,0,1,.194.194v.805A.2.2,0,0,1,591.755,440.393Z" transform="translate(-590.1 -439.2)" fill="none" stroke="#fff" stroke-linecap="round" stroke-miterlimit="10" stroke-width="0.7"/>
        <path id="Path_5163" data-name="Path 5163" d="M612.455,440.393h-1.461a.2.2,0,0,1-.194-.194v-.805a.2.2,0,0,1,.194-.194h1.461a.2.2,0,0,1,.194.194v.805A.2.2,0,0,1,612.455,440.393Z" transform="translate(-607.713 -439.2)" fill="none" stroke="#fff" stroke-linecap="round" stroke-miterlimit="10" stroke-width="0.7"/>
        <line id="Line_1429" data-name="Line 1429" x2="1.238" transform="translate(1.849 0.447)" fill="none" stroke="#fff" stroke-linecap="round" stroke-miterlimit="10" stroke-width="0.7"/>
      </g>
      <line id="Line_1430" data-name="Line 1430" x2="0.85" y2="0.373" transform="translate(3.728 3.758)" fill="none" stroke="#fff" stroke-linecap="round" stroke-miterlimit="10" stroke-width="0.7"/>
      <line id="Line_1431" data-name="Line 1431" y1="0.373" x2="0.835" transform="translate(9.513 3.758)" fill="none" stroke="#fff" stroke-linecap="round" stroke-miterlimit="10" stroke-width="0.7"/>
      <path id="Path_5164" data-name="Path 5164" d="M597.632,473.9l-1.909,1.715L593.8,473.9" transform="translate(-588.671 -464.983)" fill="none" stroke="#fff" stroke-linecap="round" stroke-linejoin="round" stroke-miterlimit="10" stroke-width="0.7"/>
      <line id="Line_1432" data-name="Line 1432" y1="0.403" x2="2.162" transform="translate(10.095 13.107)" fill="none" stroke="#fff" stroke-linecap="round" stroke-linejoin="round" stroke-miterlimit="10" stroke-width="0.7"/>
    </g>
  </g>
</svg>
