<svg xmlns="http://www.w3.org/2000/svg" width="21.686" height="27.897" viewBox="0 0 21.686 27.897">
  <g id="Group_2502" data-name="Group 2502" transform="translate(-345.499 -728.437)">
    <g id="Group_2362" data-name="Group 2362" transform="translate(345.911 728.787)">
      <g id="Group_1793" data-name="Group 1793" transform="translate(8.133 16.288)">
        <path id="Path_5155" data-name="Path 5155" d="M602.716,487.8l-1.547,1.525L599.6,487.8" transform="translate(-598.849 -487.8)" fill="none" stroke="#6c5b7b" stroke-linecap="round" stroke-linejoin="round" stroke-miterlimit="10" stroke-width="0.7"/>
        <path id="Path_5156" data-name="Path 5156" d="M597.747,491.2l-1.547,7.691,2.321,2.321" transform="translate(-596.2 -490.449)" fill="none" stroke="#6c5b7b" stroke-linecap="round" stroke-linejoin="round" stroke-miterlimit="10" stroke-width="0.7"/>
        <path id="Path_5157" data-name="Path 5157" d="M607.474,491.2,609,498.891l-2.3,2.321" transform="translate(-604.38 -490.449)" fill="none" stroke="#6c5b7b" stroke-linecap="round" stroke-linejoin="round" stroke-miterlimit="10" stroke-width="0.7"/>
      </g>
      <g id="Group_1794" data-name="Group 1794" transform="translate(0 5.768)">
        <path id="Path_5158" data-name="Path 5158" d="M620.469,457.969l6.144-1.282-.818-4.066a3.934,3.934,0,0,0-1.37-2.3,3.072,3.072,0,0,0-1.348-.707l-3.47-1.017c-.066-.022-.155-.066-.221-.088a.766.766,0,0,1-.332-.53l-.155-1.37a5.809,5.809,0,0,0,2.033-3.2c.619-.044,1.105-.751,1.105-1.613a1.544,1.544,0,0,0-.95-1.591" transform="translate(-605.75 -440.2)" fill="none" stroke="#6c5b7b" stroke-linecap="round" stroke-miterlimit="10" stroke-width="0.7"/>
        <path id="Path_5159" data-name="Path 5159" d="M564.925,440.2a1.579,1.579,0,0,0-.928,1.591,1.479,1.479,0,0,0,1.083,1.613,5.932,5.932,0,0,0,2.033,3.2l-.155,1.37a.723.723,0,0,1-.332.53.664.664,0,0,1-.221.088l-3.47.995a3.071,3.071,0,0,0-1.348.707,4,4,0,0,0-1.37,2.3l-.818,4.067,5.5,1.149" transform="translate(-559.4 -440.2)" fill="none" stroke="#6c5b7b" stroke-linecap="round" stroke-miterlimit="10" stroke-width="0.7"/>
      </g>
      <path id="Path_5160" data-name="Path 5160" d="M594.283,419.846s.287-5.746-4.884-5.746-4.906,5.768-4.906,5.768" transform="translate(-578.945 -414.1)" fill="none" stroke="#6c5b7b" stroke-linecap="round" stroke-miterlimit="10" stroke-width="0.7"/>
      <path id="Path_5161" data-name="Path 5161" d="M586.1,425.467a1.818,1.818,0,0,1,1.017-.884,2.877,2.877,0,0,1,2.166.265,9.834,9.834,0,0,0,2.939,1.105,4.99,4.99,0,0,0,2.939-.486" transform="translate(-580.199 -422.174)" fill="none" stroke="#6c5b7b" stroke-linecap="round" stroke-miterlimit="10" stroke-width="0.7"/>
      <g id="Group_1795" data-name="Group 1795" transform="translate(6.785 5.547)">
        <path id="Path_5162" data-name="Path 5162" d="M592.553,440.968h-2.166a.293.293,0,0,1-.287-.287v-1.193a.293.293,0,0,1,.287-.287h2.166a.293.293,0,0,1,.287.287v1.193A.293.293,0,0,1,592.553,440.968Z" transform="translate(-590.1 -439.2)" fill="none" stroke="#6c5b7b" stroke-linecap="round" stroke-miterlimit="10" stroke-width="0.7"/>
        <path id="Path_5163" data-name="Path 5163" d="M613.253,440.968h-2.166a.293.293,0,0,1-.287-.287v-1.193a.293.293,0,0,1,.287-.287h2.166a.293.293,0,0,1,.287.287v1.193A.293.293,0,0,1,613.253,440.968Z" transform="translate(-606.225 -439.2)" fill="none" stroke="#6c5b7b" stroke-linecap="round" stroke-miterlimit="10" stroke-width="0.7"/>
        <line id="Line_1429" data-name="Line 1429" x2="1.834" transform="translate(2.741 0.663)" fill="none" stroke="#6c5b7b" stroke-linecap="round" stroke-miterlimit="10" stroke-width="0.7"/>
      </g>
      <line id="Line_1430" data-name="Line 1430" x2="1.26" y2="0.553" transform="translate(5.525 5.569)" fill="none" stroke="#6c5b7b" stroke-linecap="round" stroke-miterlimit="10" stroke-width="0.7"/>
      <line id="Line_1431" data-name="Line 1431" y1="0.553" x2="1.238" transform="translate(14.1 5.569)" fill="none" stroke="#6c5b7b" stroke-linecap="round" stroke-miterlimit="10" stroke-width="0.7"/>
      <path id="Path_5164" data-name="Path 5164" d="M599.48,473.9l-2.829,2.542L593.8,473.9" transform="translate(-586.197 -460.684)" fill="none" stroke="#6c5b7b" stroke-linecap="round" stroke-linejoin="round" stroke-miterlimit="10" stroke-width="0.7"/>
      <line id="Line_1432" data-name="Line 1432" y1="0.597" x2="3.205" transform="translate(14.962 19.427)" fill="none" stroke="#6c5b7b" stroke-linecap="round" stroke-linejoin="round" stroke-miterlimit="10" stroke-width="0.7"/>
    </g>
  </g>
</svg>
