<svg xmlns="http://www.w3.org/2000/svg" width="20.611" height="21.841" viewBox="0 0 20.611 21.841">
  <g id="XMLID_17303_" transform="translate(-736.325 -2221.604)">
    <circle id="XMLID_17313_" cx="7.572" cy="7.572" r="7.572" transform="matrix(0.334, -0.942, 0.942, 0.334, 736.964, 2236.516)" fill="none" stroke="#fff" stroke-miterlimit="10" stroke-width="1"/>
    <path id="XMLID_17312_" d="M753.9,2234.6a8.706,8.706,0,0,0-2.8,2.631" transform="translate(-11.752 -10.274)" fill="none" stroke="#fff" stroke-linecap="round" stroke-linejoin="round" stroke-miterlimit="10" stroke-width="1"/>
    <g id="XMLID_17310_" transform="translate(737.796 2234.597)">
      <path id="XMLID_17311_" d="M741.9,2295.5a9.186,9.186,0,0,0,17.674,0" transform="translate(-741.9 -2295.5)" fill="none" stroke="#fff" stroke-linecap="round" stroke-linejoin="round" stroke-miterlimit="10" stroke-width="1"/>
    </g>
    <path id="XMLID_17309_" d="M751.322,2236.176a1.263,1.263,0,0,1-.422-.927,1.246,1.246,0,0,1,2.209-.793" transform="translate(-11.586 -9.775)" fill="none" stroke="#fff" stroke-linecap="round" stroke-linejoin="round" stroke-miterlimit="10" stroke-width="1"/>
    <path id="XMLID_17308_" d="M820.9,2234.6a8.7,8.7,0,0,1,2.8,2.631" transform="translate(-69.781 -10.274)" fill="none" stroke="#fff" stroke-linecap="round" stroke-linejoin="round" stroke-miterlimit="10" stroke-width="1"/>
    <path id="XMLID_17307_" d="M826.388,2236.176a1.263,1.263,0,0,0,.422-.927,1.246,1.246,0,0,0-2.209-.793" transform="translate(-72.857 -9.775)" fill="none" stroke="#fff" stroke-linecap="round" stroke-linejoin="round" stroke-miterlimit="10" stroke-width="1"/>
    <path id="XMLID_17306_" d="M797.707,2256.719l-3.407-3.406V2248" transform="translate(-47.667 -21.414)" fill="none" stroke="#fff" stroke-linecap="round" stroke-linejoin="round" stroke-miterlimit="10" stroke-width="1"/>
    <line id="XMLID_17305_" x2="10.017" transform="translate(741.624 2242.945)" fill="none" stroke="#fff" stroke-linecap="round" stroke-linejoin="round" stroke-miterlimit="10" stroke-width="1"/>
    <line id="XMLID_17304_" y1="1.67" transform="translate(746.633 2241.275)" fill="none" stroke="#fff" stroke-linecap="round" stroke-linejoin="round" stroke-miterlimit="10" stroke-width="1"/>
  </g>
</svg>
