<svg xmlns="http://www.w3.org/2000/svg" width="26.318" height="16" viewBox="0 0 26.318 16">
  <g id="Group_2325" data-name="Group 2325" transform="translate(-627 -24)">
    <g id="Group_2324" data-name="Group 2324">
      <g id="Rectangle_391" data-name="Rectangle 391" transform="translate(630 27)" fill="none" stroke="#746482" stroke-width="1">
        <rect width="14" height="10" rx="2" stroke="none"/>
        <rect x="0.5" y="0.5" width="13" height="9" rx="1.5" fill="none"/>
      </g>
      <g id="Rectangle_392" data-name="Rectangle 392" transform="translate(627 24)" fill="none" stroke="#6c5b7b" stroke-linecap="round" stroke-linejoin="round" stroke-width="1">
        <rect width="20" height="16" rx="3" stroke="none"/>
        <rect x="0.5" y="0.5" width="19" height="15" rx="2.5" fill="none"/>
      </g>
      <path id="Path_6176" data-name="Path 6176" d="M3985.441,5585.075l5.818-2.736v11.348l-5.818-3.089Z" transform="translate(-3338.441 -5555.839)" fill="none" stroke="#6c5b7b" stroke-linecap="round" stroke-linejoin="round" stroke-width="1"/>
      <line id="Line_1894" data-name="Line 1894" y2="5" transform="translate(650.5 29.5)" fill="none" stroke="#6c5b7b" stroke-linecap="round" stroke-width="1"/>
    </g>
    <rect id="Rectangle_393" data-name="Rectangle 393" width="5" height="6" transform="translate(633 29)" fill="#ffc124"/>
  </g>
</svg>
