<svg xmlns="http://www.w3.org/2000/svg" xmlns:xlink="http://www.w3.org/1999/xlink" width="186.361" height="37.842" viewBox="0 0 186.361 37.842">
  <defs>
    <filter id="Path_109" x="0" y="0" width="38.296" height="37.842" filterUnits="userSpaceOnUse">
      <feOffset dy="3" input="SourceAlpha"/>
      <feGaussianBlur stdDeviation="3" result="blur"/>
      <feFlood flood-opacity="0.161"/>
      <feComposite operator="in" in2="blur"/>
      <feComposite in="SourceGraphic"/>
    </filter>
  </defs>
  <path id="Path_6181" data-name="Path 6181" d="M24.291-25.535V-4.83H20.865V-20.352L14.877-4.83H11.9L5.88-20.352V-4.83h-3.4V-25.535H6.6L13.447-9,20.18-25.535ZM43.626-13.827a7.883,7.883,0,0,1-.119,1.46H30.875a5.162,5.162,0,0,0,1.4,3.754,4.582,4.582,0,0,0,3.247,1.221A4.724,4.724,0,0,0,38.4-8.256a3.567,3.567,0,0,0,1.445-2.294h3.635a7.066,7.066,0,0,1-1.37,3.069,7.083,7.083,0,0,1-2.711,2.1,8.884,8.884,0,0,1-3.724.76,8.569,8.569,0,0,1-4.215-1.013,7.2,7.2,0,0,1-2.875-2.92,9.236,9.236,0,0,1-1.043-4.5,9.171,9.171,0,0,1,1.043-4.469,7.2,7.2,0,0,1,2.875-2.92,8.569,8.569,0,0,1,4.215-1.013,8.564,8.564,0,0,1,4.215,1,6.943,6.943,0,0,1,2.771,2.741A7.869,7.869,0,0,1,43.626-13.827ZM40.2-13.917a5.047,5.047,0,0,0-.551-2.7,3.831,3.831,0,0,0-1.668-1.609,5.15,5.15,0,0,0-2.309-.521,4.768,4.768,0,0,0-3.337,1.221,4.99,4.99,0,0,0-1.46,3.6Zm13.287-7.537a6.494,6.494,0,0,1,3.813,1.1,5.765,5.765,0,0,1,2.2,2.92v-9.444h3.426V-4.83H59.5V-8.644a5.765,5.765,0,0,1-2.2,2.92,6.494,6.494,0,0,1-3.813,1.1,7.278,7.278,0,0,1-3.828-1.013,6.923,6.923,0,0,1-2.637-2.92,9.947,9.947,0,0,1-.953-4.5,9.876,9.876,0,0,1,.953-4.469,6.923,6.923,0,0,1,2.637-2.92A7.278,7.278,0,0,1,53.487-21.454Zm1.043,2.979a4.727,4.727,0,0,0-3.62,1.445,5.582,5.582,0,0,0-1.356,3.977A5.582,5.582,0,0,0,50.91-9.076a4.727,4.727,0,0,0,3.62,1.445,4.932,4.932,0,0,0,2.562-.67,4.761,4.761,0,0,0,1.787-1.892,5.961,5.961,0,0,0,.655-2.86,5.983,5.983,0,0,0-.655-2.845A4.738,4.738,0,0,0,57.092-17.8,4.932,4.932,0,0,0,54.53-18.475Zm12.006-7.537a1.888,1.888,0,0,1,.6-1.43,2.2,2.2,0,0,1,1.579-.566,2.251,2.251,0,0,1,1.594.566,1.866,1.866,0,0,1,.611,1.43,1.775,1.775,0,0,1-.611,1.4,2.327,2.327,0,0,1-1.594.536,2.271,2.271,0,0,1-1.579-.536A1.8,1.8,0,0,1,66.536-26.012Zm3.873,4.767V-4.83h-3.4V-21.245Zm13.5-4.826a10.26,10.26,0,0,1,6.435,1.966,9.607,9.607,0,0,1,3.456,5.333h-3.6A6.4,6.4,0,0,0,87.822-21.8a6.847,6.847,0,0,0-3.977-1.117,6.182,6.182,0,0,0-3.352.924,6.35,6.35,0,0,0-2.324,2.637,8.919,8.919,0,0,0-.849,4.007,8.848,8.848,0,0,0,.849,3.977,6.35,6.35,0,0,0,2.324,2.637,6.182,6.182,0,0,0,3.352.924,6.847,6.847,0,0,0,3.977-1.117,6.423,6.423,0,0,0,2.368-2.994h3.6A9.535,9.535,0,0,1,90.339-6.6,10.314,10.314,0,0,1,83.9-4.651a10.168,10.168,0,0,1-5.273-1.356,9.182,9.182,0,0,1-3.545-3.784,11.956,11.956,0,0,1-1.251-5.556A11.956,11.956,0,0,1,75.086-20.9a9.282,9.282,0,0,1,3.545-3.8A10.082,10.082,0,0,1,83.9-26.072Zm19.871,4.618a6.494,6.494,0,0,1,3.813,1.1,5.932,5.932,0,0,1,2.234,2.92v-3.813h3.4V-4.83h-3.4V-8.644a5.932,5.932,0,0,1-2.234,2.92,6.494,6.494,0,0,1-3.813,1.1,7.278,7.278,0,0,1-3.828-1.013,6.923,6.923,0,0,1-2.637-2.92,9.947,9.947,0,0,1-.953-4.5,9.876,9.876,0,0,1,.953-4.469,6.923,6.923,0,0,1,2.637-2.92A7.278,7.278,0,0,1,103.775-21.454Zm1.043,2.979a4.727,4.727,0,0,0-3.62,1.445,5.582,5.582,0,0,0-1.356,3.977A5.582,5.582,0,0,0,101.2-9.076a4.727,4.727,0,0,0,3.62,1.445,4.932,4.932,0,0,0,2.562-.67,4.761,4.761,0,0,0,1.788-1.892,5.961,5.961,0,0,0,.655-2.86,5.983,5.983,0,0,0-.655-2.845A4.738,4.738,0,0,0,107.38-17.8,4.932,4.932,0,0,0,104.818-18.475Zm15.879.447a6.33,6.33,0,0,1,2.383-2.547,6.763,6.763,0,0,1,3.575-.938v3.694h-1.013a5.567,5.567,0,0,0-3.59,1.087,4.34,4.34,0,0,0-1.356,3.59V-4.83h-3.4V-21.245h3.4Zm23.744,4.2a7.883,7.883,0,0,1-.119,1.46H131.69a5.162,5.162,0,0,0,1.4,3.754,4.582,4.582,0,0,0,3.247,1.221,4.724,4.724,0,0,0,2.875-.864,3.567,3.567,0,0,0,1.445-2.294h3.635a7.066,7.066,0,0,1-1.37,3.069,7.083,7.083,0,0,1-2.711,2.1,8.884,8.884,0,0,1-3.724.76,8.569,8.569,0,0,1-4.215-1.013,7.2,7.2,0,0,1-2.875-2.92,9.236,9.236,0,0,1-1.043-4.5,9.171,9.171,0,0,1,1.043-4.469,7.2,7.2,0,0,1,2.875-2.92,8.569,8.569,0,0,1,4.215-1.013,8.564,8.564,0,0,1,4.215,1,6.943,6.943,0,0,1,2.771,2.741A7.869,7.869,0,0,1,144.44-13.827Zm-3.426-.089a5.047,5.047,0,0,0-.551-2.7,3.831,3.831,0,0,0-1.668-1.609,5.15,5.15,0,0,0-2.309-.521,4.768,4.768,0,0,0-3.337,1.221,4.99,4.99,0,0,0-1.46,3.6Z" transform="translate(41.92 36.251)" fill="#fff"/>
  <g id="icon" transform="translate(-19.601 -12.214)">
    <g id="Group_60" data-name="Group 60" transform="translate(30.011 19.63)">
      <g id="Group_59" data-name="Group 59" transform="translate(0 0)">
        <g id="Group_58" data-name="Group 58">
          <path id="Path_110" data-name="Path 110" d="M57.224,35.508V25.667h10.3" transform="translate(-43.559 -12.007)" fill="none" stroke="#fff" stroke-linecap="round" stroke-linejoin="round" stroke-width="10"/>
          <g transform="matrix(1, 0, 0, 1, -10.41, -7.42)" filter="url(#Path_109)">
            <path id="Path_109-2" data-name="Path 109" d="M67.52,25.667v9.842h-10.3" transform="translate(-43.22 -14.67)" fill="none" stroke="#fff" stroke-linecap="round" stroke-linejoin="round" stroke-width="10"/>
          </g>
          <path id="Path_111" data-name="Path 111" d="M58.655,37.65c-.277.063-2,0-2,0H55.325l-.579-.121-.507-.241-.6-.386-.41-.338-.483-.579-.29-.724-.217-.652V33.475l.217-.507.1-.458.338-.531.338-.41.41-.314.458-.29.652-.29.579-.193h7.263V23.51l.169-.483.193-.362.193-.434.217-.265.217-.29h0l.458-.41.434-.193.386-.169h0l.652-.217H66.69l.579.217.362.169.434.193.434.314.41.386.217.362.364.7.186.483v1.871l-2.407,5.1-2,2.485-2.32,2.292Z" transform="translate(-52.236 -20.687)" fill="#6c5b7b" opacity="0.08"/>
        </g>
      </g>
    </g>
  </g>
</svg>
